Chapter 2 Coordinate Reference System | Geospatial Analysis in Ecology
…
scientific_name
Scientific name

common_name
Common name

count
Number of fish collected

Let’s take a quick view of the dataframe:

print(df_fish)

## # A tibble: 13,597 × 8
##    site_id  year date         lon   lat scientific_name        common_name count
##    <chr>   <dbl> <date>     <dbl> <dbl> <chr>                  <chr>       <dbl>
##  1 af1      2015 2015-06-16 -82.0  35.5 Lepomis cyanellus      Green sunf…     3
##  2 af1      2015 2015-06-16 -82.0  35.5 Noturus insignis       Margined m…     6
##  3 af1      2015 2015-06-16 -82.0  35.5 Notropis scepticus     Sandbar sh…     2
##  4 af1      2015 2015-06-16 -82.0  35.5 Semotilus atromaculat… Creek chub     16
##  5 af1      2015 2015-06-16 -82.0  35.5 Lepomis macrochirus    Bluegill        4
##  6 af1      2015 2015-06-16 -82.0  35.5 Ameiurus platycephalus Flat bullh…     1
##  7 af1      2015 2015-06-16 -82.0  35.5 Hybopsis hypsinotus    Highback c…    15
##  8 af1      2015 2015-06-16 -82.0  35.5 Lepomis auritus        Redbreast …    24
##  9 af1      2015 2015-06-16 -82.0  35.5 Moxostoma rupiscartes  Striped ju…    34
## 10 af1      2015 2015-06-16 -82.0  35.5 Nocomis leptocephalus  Bluehead c…   176
## # ℹ 13,587 more rows
Since this dataframe contains longitude and latitude columns, we can make this data as georeferenced.
To do so, we’ll need to use functions from sf package, which makes the mere numbers of coordinates linked to CRS of your choice.

sf_fish <- df_fish %>% 
  st_as_sf(coords = c("lon", "lat"),
           crs = 4326)

print(sf_fish)

## Simple feature collection with 13597 features and 6 fields
## Geometry type: POINT
## Dimension:     XY
## Bounding box:  xmin: -84.28018 ymin: 33.95222 xmax: -76.83904 ymax: 36.56712
## Geodetic CRS:  WGS 84
## # A tibble: 13,597 × 7
##    site_id  year date       scientific_name         common_name       count
##  * <chr>   <dbl> <date>     <chr>                   <chr>             <dbl>
##  1 af1      2015 2015-06-16 Lepomis cyanellus       Green sunfish         3
##  2 af1      2015 2015-06-16 Noturus insignis        Margined madtom       6
##  3 af1      2015 2015-06-16 Notropis scepticus      Sandbar shiner        2
##  4 af1      2015 2015-06-16 Semotilus atromaculatus Creek chub           16
##  5 af1      2015 2015-06-16 Lepomis macrochirus     Bluegill              4
##  6 af1      2015 2015-06-16 Ameiurus platycephalus  Flat bullhead         1
##  7 af1      2015 2015-06-16 Hybopsis hypsinotus     Highback chub        15
##  8 af1      2015 2015-06-16 Lepomis auritus         Redbreast sunfish    24
##  9 af1      2015 2015-06-16 Moxostoma rupiscartes   Striped jumprock     34
## 10 af1      2015 2015-06-16 Nocomis leptocephalus   Bluehead chub       176
## # ℹ 13,587 more rows
## # ℹ 1 more variable: geometry <POINT [°]>
…
