Chapter 1 Coordinate Systems | R-GIS for Ecology
…
lat
Latitude

latin
Scientific name

presence
Presence/absence of a species (1, present; 0, absent)

Let’s take a quick view of the dataframe:

print(df_fish)

## # A tibble: 1,426 × 7
##    site_id               year date         lon   lat latin              presence
##    <chr>                <dbl> <date>     <dbl> <dbl> <chr>                 <dbl>
##  1 finsync_nrs_nc-10013  2009 2009-06-27 -81.5  36.1 Clinostomus fundu…        1
##  2 finsync_nrs_nc-10013  2009 2009-06-27 -81.5  36.1 Etheostoma flabel…        1
##  3 finsync_nrs_nc-10013  2009 2009-06-27 -81.5  36.1 Hybopsis hypsinot…        1
##  4 finsync_nrs_nc-10013  2009 2009-06-27 -81.5  36.1 Lepomis auritus           1
##  5 finsync_nrs_nc-10013  2009 2009-06-27 -81.5  36.1 Moxostoma rupisca…        1
##  6 finsync_nrs_nc-10013  2009 2009-06-27 -81.5  36.1 Nocomis leptoceph…        1
##  7 finsync_nrs_nc-10013  2009 2009-06-27 -81.5  36.1 Notropis chilitic…        1
##  8 finsync_nrs_nc-10013  2009 2009-06-27 -81.5  36.1 Semotilus atromac…        1
##  9 finsync_nrs_nc-10014  2009 2009-06-03 -80.4  35.9 Clinostomus fundu…        1
## 10 finsync_nrs_nc-10014  2009 2009-06-03 -80.4  35.9 Fundulus rathbuni         1
## # ℹ 1,416 more rows
…
sf_site <- df_fish %>% 
  distinct(site_id, lon, lat) %>% # get unique combinations of longitude & latitude
  st_as_sf(coords = c("lon", "lat"),
           crs = 4326)

print(sf_site)

## Simple feature collection with 122 features and 1 field
## Geometry type: POINT
## Dimension:     XY
## Bounding box:  xmin: -84.02452 ymin: 34.53497 xmax: -76.74611 ymax: 36.54083
## Geodetic CRS:  WGS 84
## # A tibble: 122 × 2
##    site_id                          geometry
##  * <chr>                         <POINT [°]>
##  1 finsync_nrs_nc-10013 (-81.51025 36.11188)
##  2 finsync_nrs_nc-10014 (-80.35989 35.87616)
##  3 finsync_nrs_nc-10020 (-81.74472 35.64379)
##  4 finsync_nrs_nc-10023  (-82.77898 35.6822)
##  5 finsync_nrs_nc-10024 (-77.75384 35.38553)
##  6 finsync_nrs_nc-10027 (-83.69678 35.02467)
##  7 finsync_nrs_nc-10029 (-80.65668 35.16119)
##  8 finsync_nrs_nc-10034 (-82.04497 36.09917)
##  9 finsync_nrs_nc-10041 (-80.46558 35.04365)
## 10 finsync_nrs_nc-10049 (-77.96322 34.58249)
## # ℹ 112 more rows
…
