Chapter 6 Species Distribution Modeling | R-GIS for Ecology
…
6.2 Linking GIS to ecology

So far, we have covered the fundamentals of GIS, but made only limited connections to ecological data.
Now that we’ve developed core GIS skills, we are ready to link GIS-derived environmental variables to ecological patterns, such as species occurrence and distribution.
Here, we’ll dip our toes into Species Distribution Modeling (SDM), a foundational approach in ecological modeling for understanding the relationships between species occurrences and the environment across broad spatial scales.

For this exercise, let’s use the fish data from finsyncR:

(df_finsync <- read_csv("data/data_finsync_nc.csv"))

## # A tibble: 1,426 × 6
##    site_id               year date         lon   lat latin                  
##    <chr>                <dbl> <date>     <dbl> <dbl> <chr>                  
##  1 finsync_nrs_nc-10013  2009 2009-06-27 -81.5  36.1 Clinostomus funduloides
##  2 finsync_nrs_nc-10013  2009 2009-06-27 -81.5  36.1 Etheostoma flabellare  
##  3 finsync_nrs_nc-10013  2009 2009-06-27 -81.5  36.1 Hybopsis hypsinotus    
##  4 finsync_nrs_nc-10013  2009 2009-06-27 -81.5  36.1 Lepomis auritus        
##  5 finsync_nrs_nc-10013  2009 2009-06-27 -81.5  36.1 Moxostoma rupiscartes  
##  6 finsync_nrs_nc-10013  2009 2009-06-27 -81.5  36.1 Nocomis leptocephalus  
##  7 finsync_nrs_nc-10013  2009 2009-06-27 -81.5  36.1 Notropis chiliticus    
##  8 finsync_nrs_nc-10013  2009 2009-06-27 -81.5  36.1 Semotilus atromaculatus
##  9 finsync_nrs_nc-10014  2009 2009-06-03 -80.4  35.9 Clinostomus funduloides
## 10 finsync_nrs_nc-10014  2009 2009-06-03 -80.4  35.9 Fundulus rathbuni      
## # ℹ 1,416 more rows
…
To model a species’ response to environmental conditions, we need to compare sites where the species was observed to those where it was absent.
This contrast enables us to estimate how environmental variables—like air temperature—influence the probability of species occurrence.
Therefore, we must reshape the dataset to include complete presence/absence information for a single species across all survey sites.

The goal is to create a dataframe listing species presence/absence across all survey sites.
To make it clear that each row represents a presence record, let me add a column of “presence” – then we’ll use the function dplyr::pivot_wider() to complete this task:

df_finsync %>% 
  mutate(presence = 1) %>% # all recorded species are "presence" = 1
  pivot_wider(id_cols = c(site_id, lon, lat),
              names_from = latin,
              values_from = presence)

## # A tibble: 122 × 133
##    site_id               lon   lat Clinostomus funduloi…¹ Etheostoma flabellar…²
##    <chr>               <dbl> <dbl>                  <dbl>                  <dbl>
##  1 finsync_nrs_nc-100… -81.5  36.1                      1                      1
##  2 finsync_nrs_nc-100… -80.4  35.9                      1                     NA
##  3 finsync_nrs_nc-100… -81.7  35.6                      1                      1
##  4 finsync_nrs_nc-100… -82.8  35.7                     NA                      1
##  5 finsync_nrs_nc-100… -77.8  35.4                     NA                     NA
##  6 finsync_nrs_nc-100… -83.7  35.0                     NA                     NA
##  7 finsync_nrs_nc-100… -80.7  35.2                      1                     NA
##  8 finsync_nrs_nc-100… -82.0  36.1                     NA                     NA
##  9 finsync_nrs_nc-100… -80.5  35.0                     NA                      1
## 10 finsync_nrs_nc-100… -78.0  34.6                     NA                     NA
## # ℹ 112 more rows
## # ℹ abbreviated names: ¹​`Clinostomus funduloides`, ²​`Etheostoma flabellare`
## # ℹ 128 more variables: `Hybopsis hypsinotus` <dbl>, `Lepomis auritus` <dbl>,
## #   `Moxostoma rupiscartes` <dbl>, `Nocomis leptocephalus` <dbl>,
## #   `Notropis chiliticus` <dbl>, `Semotilus atromaculatus` <dbl>,
## #   `Fundulus rathbuni` <dbl>, `Ambloplites rupestris` <dbl>,
## #   `Campostoma anomalum` <dbl>, `Catostomus commersonii` <dbl>, …

In this case, we set id_cols = c(site_id, lon, lat), names_from = latin, and values_from = presence.
By setting these arguments, the function will return a dataframe where each row represents a survey site (a unique combination of site_id, lon, and lat), each column corresponds to a unique species, and the cell values indicate whether each species was present (1) or absent (NA) at that site.

When species are not recorded at a given site, the function returns NA because there is no such combination of species and site in the original data – however, for the purpose of statistical modeling, we want to treat these as zeros (= absence).
An additional argument, values_fill = 0, will achieve this by filling all NA values in the output dataframe with 0, allowing us to interpret the data as complete presence/absence records across all sites and species.

df_finsync %>% 
  mutate(presence = 1) %>% # all recorded species are "presence" = 1
  pivot_wider(id_cols = c(site_id, lon, lat),
              names_from = latin,
              values_from = presence,
              values_fill = 0)

## # A tibble: 122 × 133
##    site_id               lon   lat Clinostomus funduloi…¹ Etheostoma flabellar…²
##    <chr>               <dbl> <dbl>                  <dbl>                  <dbl>
##  1 finsync_nrs_nc-100… -81.5  36.1                      1                      1
##  2 finsync_nrs_nc-100… -80.4  35.9                      1                      0
##  3 finsync_nrs_nc-100… -81.7  35.6                      1                      1
##  4 finsync_nrs_nc-100… -82.8  35.7                      0                      1
##  5 finsync_nrs_nc-100… -77.8  35.4                      0                      0
##  6 finsync_nrs_nc-100… -83.7  35.0                      0                      0
##  7 finsync_nrs_nc-100… -80.7  35.2                      1                      0
##  8 finsync_nrs_nc-100… -82.0  36.1                      0                      0
##  9 finsync_nrs_nc-100… -80.5  35.0                      0                      1
## 10 finsync_nrs_nc-100… -78.0  34.6                      0                      0
## # ℹ 112 more rows
## # ℹ abbreviated names: ¹​`Clinostomus funduloides`, ²​`Etheostoma flabellare`
## # ℹ 128 more variables: `Hybopsis hypsinotus` <dbl>, `Lepomis auritus` <dbl>,
## #   `Moxostoma rupiscartes` <dbl>, `Nocomis leptocephalus` <dbl>,
## #   `Notropis chiliticus` <dbl>, `Semotilus atromaculatus` <dbl>,
## #   `Fundulus rathbuni` <dbl>, `Ambloplites rupestris` <dbl>,
## #   `Campostoma anomalum` <dbl>, `Catostomus commersonii` <dbl>, …
…
## assign df_rbs
(df_rbs <- df_finsync %>% 
  mutate(presence = 1) %>% # all recorded species are "presence" = 1
  pivot_wider(id_cols = c(site_id, lon, lat),
              names_from = latin,
              values_from = presence,
              values_fill = 0) %>% 
  select(site_id,
         lon,
         lat,
         "Lepomis auritus") %>% 
  rename(y = "Lepomis auritus")) # rename column "Lepomis auritus" to y

## # A tibble: 122 × 4
##    site_id                lon   lat     y
##    <chr>                <dbl> <dbl> <dbl>
##  1 finsync_nrs_nc-10013 -81.5  36.1     1
##  2 finsync_nrs_nc-10014 -80.4  35.9     0
##  3 finsync_nrs_nc-10020 -81.7  35.6     0
##  4 finsync_nrs_nc-10023 -82.8  35.7     1
##  5 finsync_nrs_nc-10024 -77.8  35.4     0
##  6 finsync_nrs_nc-10027 -83.7  35.0     0
##  7 finsync_nrs_nc-10029 -80.7  35.2     0
##  8 finsync_nrs_nc-10034 -82.0  36.1     0
##  9 finsync_nrs_nc-10041 -80.5  35.0     1
## 10 finsync_nrs_nc-10049 -78.0  34.6     0
## # ℹ 112 more rows
…
For analysis, it’s convenient to have the data in tibble format, especially since the geometry column from the sf object is not needed for statistical modeling.
We can easily convert the spatial object to a regular tibble using tidyr::as_tibble(), which drops the geospatial infromation by default (e.g., CRS).

(df_rbs_tmp <- as_tibble(sf_rbs_tmp) %>% 
  select(-geometry))

## # A tibble: 122 × 3
##    site_id                  y temperature
##    <chr>                <dbl>       <dbl>
##  1 finsync_nrs_nc-10013     1       13.6 
##  2 finsync_nrs_nc-10014     0       15.1 
##  3 finsync_nrs_nc-10020     0       14.2 
##  4 finsync_nrs_nc-10023     1       12.6 
##  5 finsync_nrs_nc-10024     0       16.5 
##  6 finsync_nrs_nc-10027     0       13.4 
##  7 finsync_nrs_nc-10029     0       15.9 
##  8 finsync_nrs_nc-10034     0        9.35
##  9 finsync_nrs_nc-10041     1       16.1 
## 10 finsync_nrs_nc-10049     0       16.9 
## # ℹ 112 more rows
…
