Chapter 5 Vector-Raster Interactions | R-GIS for Ecology
…
In the code below, exact_extract() is used to calculate the mean precipitation within each county polygon (sf_nc_county_proj) from the reprojected raster spr_prec_nc_proj.
The argument fun = "mean" specifies that we want to compute the simple mean of all raster cell values that overlap each polygon.
The append_cols = TRUE option ensures that all original attributes from the sf_nc_county_proj object are retained in the output, which makes it easier to link the results back to the spatial features.

# NOTE: `progress = FALSE` turns off the progress bar for cleaner output
(df_prec_county <- exact_extract(x = spr_prec_nc_proj,
                                 y = sf_nc_county_proj,
                                 fun = "mean",
                                 append_cols = TRUE,
                                 progress = FALSE) %>% 
   as_tibble() %>% # convert to tibble
   rename(precipitation = mean)) # rename the output column)

## # A tibble: 100 × 2
##    county      precipitation
##    <chr>               <dbl>
##  1 ashe                1366.
##  2 alleghany           1369.
##  3 surry               1217.
##  4 currituck           1281.
##  5 northampton         1179.
##  6 hertford            1239.
##  7 camden              1299.
##  8 gates               1275.
##  9 warren              1140.
## 10 stokes              1218.
## # ℹ 90 more rows
…
However, the exact_extract() function provides a convenient alternative that avoids the need for explicit reprojection.
By specifying fun = "weighted_mean" and weights = "area", we instruct the function to calculate the mean precipitation for each polygon by weighting each raster cell’s contribution according to the fraction of its area that overlaps the polygon.

This internal weighting allows exact_extract() to produce geometrically accurate results even when the layers remain in a geographic CRS (e.g., WGS 84), which is especially useful when working with global datasets or when reprojection is impractical.

(df_prec_county_alt <- exact_extract(x = spr_prec_nc,
                                     y = sf_nc_county,
                                     fun = "weighted_mean",
                                     weights = "area",
                                     append_cols = TRUE,
                                     progress = FALSE) %>% 
   as_tibble() %>% # convert to tibble
   rename(precipitation = weighted_mean)) # rename the output column

## # A tibble: 100 × 2
##    county      precipitation
##    <chr>               <dbl>
##  1 ashe                1366.
##  2 alleghany           1369.
##  3 surry               1217.
##  4 currituck           1281.
##  5 northampton         1179.
##  6 hertford            1239.
##  7 camden              1299.
##  8 gates               1275.
##  9 warren              1140.
## 10 stokes              1218.
## # ℹ 90 more rows
…
Like we did in the above examples, we can tie these extracted values back to the original point data by joining the summary statistics to the corresponding survey sites.

(sf_site_prec_buff <- sf_site %>% 
   left_join(df_prec_buff,
             by = "site_id"))

## Simple feature collection with 122 features and 2 fields
## Geometry type: POINT
## Dimension:     XY
## Bounding box:  xmin: -84.02452 ymin: 34.53497 xmax: -76.74611 ymax: 36.54083
## Geodetic CRS:  WGS 84
## # A tibble: 122 × 3
##    site_id                          geometry precipitation
##    <chr>                         <POINT [°]>         <dbl>
##  1 finsync_nrs_nc-10013 (-81.51025 36.11188)         1419.
##  2 finsync_nrs_nc-10014 (-80.35989 35.87616)         1139.
##  3 finsync_nrs_nc-10020 (-81.74472 35.64379)         1313.
##  4 finsync_nrs_nc-10023  (-82.77898 35.6822)         1279.
##  5 finsync_nrs_nc-10024 (-77.75384 35.38553)         1296.
##  6 finsync_nrs_nc-10027 (-83.69678 35.02467)         1799.
##  7 finsync_nrs_nc-10029 (-80.65668 35.16119)         1203.
##  8 finsync_nrs_nc-10034 (-82.04497 36.09917)         1648.
##  9 finsync_nrs_nc-10041 (-80.46558 35.04365)         1160.
## 10 finsync_nrs_nc-10049 (-77.96322 34.58249)         1444.
## # ℹ 112 more rows
…
